<!-- Generator: Adobe Illustrator 25.2.1, SVG Export Plug-In  -->
<svg version="1.1" xmlns="http://www.w3.org/2000/svg"
     xmlns:xlink="http://www.w3.org/1999/xlink" x="0px" y="0px" width="16px"
     height="16px" viewBox="0 0 16 16"
     style="overflow:visible;enable-background:new 0 0 16 16;"
     xml:space="preserve">
<style type="text/css">
	.st0{fill:#006CB7;}
</style>
  <defs>
</defs>
  <g>
	<path class="st0" d="M2.8,7.2c0.3,0,0.6,0.3,0.8,0.9c0.3,1.2,0.6,1.7,0.7,1.7c0.1,0,0.2-0.1,0.3-0.3c2.4-4,4.7-6.8,6.7-8.4
		C12.2,0.4,13.1,0,13.9,0c1.1,0,1.7,0,2,0.1C16,0.1,16,0.3,16,0.5c0,0.2-0.1,0.4-0.3,0.6c-5.5,7.1-8.8,11.7-9.9,13.8
		C5.5,15.6,4.6,16,3.3,16c-0.4,0-0.9-0.1-1.4-0.4c-0.2-0.1-0.5-0.8-1-2.2C0.3,11.7,0,10.2,0,8.9c0-0.5,0.3-0.9,0.9-1.2
		C1.7,7.4,2.4,7.1,2.8,7.2z"/>
</g>
</svg>
