<!-- Generator: Adobe Illustrator 22.0.1, SVG Export Plug-In  -->
<svg version="1.1"
	 xmlns="http://www.w3.org/2000/svg" xmlns:xlink="http://www.w3.org/1999/xlink" xmlns:a="http://ns.adobe.com/AdobeSVGViewerExtensions/3.0/"
	 x="0px" y="0px" width="18px" height="18px" viewBox="0 0 18 18" style="enable-background:new 0 0 18 18;" xml:space="preserve">
<style type="text/css">
	.st0{fill:#0071B2;}
	.st1{fill:none;stroke:#FFFFFF;stroke-miterlimit:10;}
	.st2{fill:#68337B;}
</style>
<defs>
</defs>
<rect class="st0" width="9" height="9"/>
<line class="st1" x1="4.5" y1="2" x2="4.5" y2="7"/>
<line class="st1" x1="2" y1="4.5" x2="7" y2="4.5"/>
<rect x="9" class="st2" width="9" height="9"/>
<line class="st1" x1="13.5" y1="2" x2="13.5" y2="7"/>
<line class="st1" x1="11" y1="4.5" x2="16" y2="4.5"/>
<rect y="9" class="st0" width="9" height="9"/>
<line class="st1" x1="2" y1="13.5" x2="7" y2="13.5"/>
<rect x="9" y="9" class="st2" width="9" height="9"/>
<line class="st1" x1="11" y1="13.5" x2="16" y2="13.5"/>
</svg>
